<?xml version="1.0" encoding="UTF-8" standalone="no"?>
<!-- Created with Inkscape (http://www.inkscape.org/) -->

<svg
   xmlns:dc="http://purl.org/dc/elements/1.1/"
   xmlns:cc="http://creativecommons.org/ns#"
   xmlns:rdf="http://www.w3.org/1999/02/22-rdf-syntax-ns#"
   xmlns:svg="http://www.w3.org/2000/svg"
   xmlns="http://www.w3.org/2000/svg"
   xmlns:sodipodi="http://sodipodi.sourceforge.net/DTD/sodipodi-0.dtd"
   xmlns:inkscape="http://www.inkscape.org/namespaces/inkscape"
   inkscape:export-ydpi="90.000000"
   inkscape:export-xdpi="90.000000"
   width="24"
   height="24"
   id="svg11300"
   sodipodi:version="0.32"
   inkscape:version="0.48.4 r9939"
   sodipodi:docname="bottom-item-active.svg"
   inkscape:output_extension="org.inkscape.output.svg.inkscape"
   version="1.0"
   style="display:inline;enable-background:new">
  <sodipodi:namedview
     stroke="#ef2929"
     fill="#f57900"
     id="base"
     pagecolor="#8c8c8c"
     bordercolor="#ff5e00"
     borderopacity="1"
     inkscape:pageopacity="1"
     inkscape:pageshadow="2"
     inkscape:zoom="20.005229"
     inkscape:cx="12"
     inkscape:cy="12"
     inkscape:current-layer="layer1"
     showgrid="true"
     inkscape:grid-bbox="true"
     inkscape:document-units="px"
     inkscape:showpageshadow="false"
     inkscape:window-width="1366"
     inkscape:window-height="716"
     inkscape:window-x="0"
     inkscape:window-y="0"
     width="400px"
     height="300px"
     inkscape:snap-nodes="true"
     inkscape:snap-bbox="true"
     gridtolerance="10000"
     inkscape:object-nodes="false"
     inkscape:snap-grids="true"
     showguides="true"
     inkscape:guide-bbox="true"
     inkscape:window-maximized="1"
     inkscape:bbox-nodes="false"
     inkscape:bbox-paths="false"
     inkscape:snap-bbox-edge-midpoints="false"
     inkscape:snap-bbox-midpoints="false"
     objecttolerance="10000"
     guidetolerance="10000"
     borderlayer="true"
     showborder="true"
     guidecolor="#ff0b00"
     guideopacity="1"
     guidehicolor="#001aff"
     guidehiopacity="0.49803922">
    <inkscape:grid
       type="xygrid"
       id="grid3123"
       empspacing="4"
       visible="true"
       enabled="true"
       snapvisiblegridlinesonly="true" />
  </sodipodi:namedview>
  <defs
     id="defs3" />
  <metadata
     id="metadata4">
    <rdf:RDF>
      <cc:Work
         rdf:about="">
        <dc:format>image/svg+xml</dc:format>
        <dc:type
           rdf:resource="http://purl.org/dc/dcmitype/StillImage" />
        <dc:creator>
          <cc:Agent>
            <dc:title />
          </cc:Agent>
        </dc:creator>
        <dc:source />
        <cc:license
           rdf:resource="" />
        <dc:title></dc:title>
        <dc:subject>
          <rdf:Bag />
        </dc:subject>
        <dc:date />
        <dc:rights>
          <cc:Agent>
            <dc:title />
          </cc:Agent>
        </dc:rights>
        <dc:publisher>
          <cc:Agent>
            <dc:title />
          </cc:Agent>
        </dc:publisher>
        <dc:identifier />
        <dc:relation />
        <dc:language />
        <dc:coverage />
        <dc:description />
        <dc:contributor>
          <cc:Agent>
            <dc:title />
          </cc:Agent>
        </dc:contributor>
      </cc:Work>
      <cc:Work
         rdf:about="">
        <dc:format>image/svg+xml</dc:format>
        <dc:type
           rdf:resource="http://purl.org/dc/dcmitype/StillImage" />
      </cc:Work>
    </rdf:RDF>
  </metadata>
  <g
     style="display:inline"
     inkscape:groupmode="layer"
     inkscape:label="Base"
     id="layer1"
     transform="translate(0,-276)">
    <rect
       style="fill:#1793d0;fill-opacity:1;stroke:none"
       id="rect2997"
       width="24"
       height="2"
       x="0"
       y="22"
       transform="translate(0,276)" />
    <rect
       style="fill:#1793d0;fill-opacity:1;stroke:none;display:inline;enable-background:new"
       id="rect2997-7"
       width="24"
       height="2"
       x="0"
       y="296" />
    <rect
       style="fill:#1793d0;fill-opacity:1;stroke:none;display:inline;enable-background:new"
       id="rect2997-75"
       width="24"
       height="2"
       x="0"
       y="294" />
    <rect
       style="fill:#1793d0;fill-opacity:1;stroke:none;display:inline;enable-background:new"
       id="rect2997-751"
       width="24"
       height="2"
       x="0"
       y="292" />
    <rect
       style="fill:#1793d0;fill-opacity:1;stroke:none;display:inline;enable-background:new"
       id="rect2997-0"
       width="24"
       height="2"
       x="0"
       y="290" />
    <rect
       style="fill:#1793d0;fill-opacity:1;stroke:none;display:inline;enable-background:new"
       id="rect2997-3"
       width="24"
       height="2"
       x="0"
       y="288" />
    <rect
       style="fill:#1793d0;fill-opacity:1;stroke:none;display:inline;enable-background:new"
       id="rect2997-5"
       width="24"
       height="2"
       x="0"
       y="286" />
    <rect
       style="fill:#1793d0;fill-opacity:1;stroke:none;display:inline;enable-background:new"
       id="rect2997-2"
       width="24"
       height="2"
       x="0"
       y="284" />
    <rect
       style="fill:#1793d0;fill-opacity:1;stroke:none;display:inline;enable-background:new"
       id="rect2997-8"
       width="24"
       height="2"
       x="0"
       y="282" />
    <rect
       style="fill:#1793d0;fill-opacity:1;stroke:none;display:inline;enable-background:new"
       id="rect2997-29"
       width="24"
       height="2"
       x="0"
       y="280" />
    <rect
       style="fill:#1793d0;fill-opacity:1;stroke:none;display:inline;enable-background:new"
       id="rect2997-81"
       width="24"
       height="2"
       x="0"
       y="278" />
    <rect
       style="fill:#1793d0;fill-opacity:1;stroke:none;display:inline;enable-background:new"
       id="rect2997-4"
       width="24"
       height="2"
       x="0"
       y="277" />
  </g>
</svg>
